%YAML 1.1
%TAG !u! tag:unity3d.com,2011:
--- !u!114 &11400000
MonoBehaviour:
  m_ObjectHideFlags: 0
  m_CorrespondingSourceObject: {fileID: 0}
  m_PrefabInstance: {fileID: 0}
  m_PrefabAsset: {fileID: 0}
  m_GameObject: {fileID: 0}
  m_Enabled: 1
  m_EditorHideFlags: 0
  m_Script: {fileID: 11500000, guid: 52e387fc9a5b2ae41a24ce06086a5463, type: 3}
  m_Name: CurtainBarTable
  m_EditorClassIdentifier: 
  url: https://opensheet.vercel.app/1ho_K1u9Q5vMUQBKsaqnn-P9qJ3gaALCq2AKyckqXIHo/CurtainBarTable
  curtainBarInfos:
  - uuid: 39000000
    name: "\u5DE6\u5074\u4E0B\u62C9\u9078\u55AE"
    number: 39500000
    description: 
    image: 
    priority: 0
    hintType: 
    surviveType: 
    timeStart: 
    timeEnd: 
  - uuid: 39000001
    name: "\u8CBF\u6613\u6E2F"
    number: 39500001
    description: "\u5546\u57CE\u8CFC\u8CB7\u8207\u5132\u503C\u7684\u7BA1\u9053"
    image: LobbyButtonChamberCommerce_0001
    priority: 9999
    hintType: 1
    surviveType: 0
    timeStart: 2000/1/1 0:00
    timeEnd: 2099/12/31 23:59
  - uuid: 39000002
    name: "\u9996\u5132\u79AE\u5305"
    number: 39500002
    description: "\u9996\u5132\u9001\u79AE\u7684\u734E\u52F5\u9810\u89BD"
    image: LobbyButtonFirstPackage_0001
    priority: 6000
    hintType: 0
    surviveType: 2
    timeStart: 2000/1/1 0:00
    timeEnd: 2099/12/31 23:59
  - uuid: 39000003
    name: "\u6D3B\u52D5"
    number: 39500003
    description: "\u671F\u9593\u9650\u5B9A\u6D3B\u52D5\u7684\u5165\u53E3"
    image: LobbyButtonActivity_0001
    priority: 4000
    hintType: 1
    surviveType: 1
    timeStart: 2000/1/1 0:00
    timeEnd: 2099/12/31 23:59
  - uuid: 39000004
    name: "\u8C50\u6C9B\u4F73\u991A(\u66AB\u6642\u4FDD\u7559)"
    number: 39500004
    description: "\u7D2F\u7A4D\u767B\u5165\u734E\u52F5"
    image: LobbyButtonFestival_0001
    priority: 2000
    hintType: 1
    surviveType: 1
    timeStart: 2000/1/1 0:00
    timeEnd: 2099/12/31 23:59
  - uuid: 39000005
    name: "\u865B\u7A7A\u4F86\u5BA2(\u66AB\u6642\u4FDD\u7559)"
    number: 39500005
    description: "\u8CB7\u8AB2\u91D1\u9650\u5B9A\u89D2\u8272"
    image: LobbyButtonNewRole_0001
    priority: 1000
    hintType: 1
    surviveType: 1
    timeStart: 2000/1/1 0:00
    timeEnd: 2099/12/31 23:59
  - uuid: 39000006
    name: "\u4EFB\u52D9"
    number: 39500006
    description: "\u6BCF\u65E5/\u6BCF\u5468/\u6210\u5C31\u7684\u5165\u53E3"
    image: LobbyImageMission_0001
    priority: 8000
    hintType: 1
    surviveType: 0
    timeStart: 2000/1/1 0:00
    timeEnd: 2099/12/31 23:59
  - uuid: 39000007
    name: "\u80CC\u5305"
    number: 39500007
    description: "\u9053\u5177/\u88DD\u5099\u7684\u5165\u53E3"
    image: LobbyImageBag_0001
    priority: 7000
    hintType: 2
    surviveType: 0
    timeStart: 2000/1/1 0:00
    timeEnd: 2099/12/31 23:59
  - uuid: 39000008
    name: "\u4FE1\u7BB1"
    number: 39500008
    description: "\u90F5\u4EF6\u7684\u5165\u53E3"
    image: LobbyImageChat_0001
    priority: 6000
    hintType: 2
    surviveType: 0
    timeStart: 2000/1/1 0:00
    timeEnd: 2099/12/31 23:59
  - uuid: 39000009
    name: "\u597D\u53CB"
    number: 39500009
    description: "\u597D\u53CB\u6E05\u55AE\u7684\u5165\u53E3"
    image: LobbyImageFriend_0001
    priority: 5000
    hintType: 2
    surviveType: 0
    timeStart: 2000/1/1 0:00
    timeEnd: 2099/12/31 23:59
  - uuid: 39000010
    name: "\u804A\u5929"
    number: 39500010
    description: "\u804A\u5929\u983B\u9053\u7684\u5165\u53E3"
    image: LobbyImageChat_0001
    priority: 4000
    hintType: 2
    surviveType: 0
    timeStart: 2000/1/1 0:00
    timeEnd: 2099/12/31 23:59
